Lab3/simulation/qsim/lab3.msim.vcd
$comment
	File created using the following command:
		vcd file lab3.msim.vcd -direction
$end
$date
	Fri Apr 11 14:40:42 2025
$end
$version
	ModelSim Version 10.1d
$end
$timescale
	1ps
$end
$scope module c2_vlg_vec_tst $end
$var reg 1 ! clk_50 $end
$var reg 1 " clr $end
$var wire 1 # HEX0 [6] $end
$var wire 1 $ HEX0 [5] $end
$var wire 1 % HEX0 [4] $end
$var wire 1 & HEX0 [3] $end
$var wire 1 ' HEX0 [2] $end
$var wire 1 ( HEX0 [1] $end
$var wire 1 ) HEX0 [0] $end
$var wire 1 * greenEW $end
$var wire 1 + greenNS $end
$var wire 1 , out [2] $end
$var wire 1 - out [1] $end
$var wire 1 . out [0] $end
$var wire 1 / redEW $end
$var wire 1 0 redNS $end
$var wire 1 1 yellowEW $end
$var wire 1 2 yellowNS $end
$var wire 1 3 sampler $end
$scope module i1 $end
$var wire 1 4 gnd $end
$var wire 1 5 vcc $end
$var wire 1 6 unknown $end
$var tri1 1 7 devclrn $end
$var tri1 1 8 devpor $end
$var tri1 1 9 devoe $end
$var wire 1 : clk_50~combout $end
$var wire 1 ; count[2]~0_combout $end
$var wire 1 < count[2]~2_combout $end
$var wire 1 = clr~combout $end
$var wire 1 > LessThan1~0_combout $end
$var wire 1 ? Selector1~0_combout $end
$var wire 1 @ state.s3~regout $end
$var wire 1 A count[0]~3_combout $end
$var wire 1 B count[1]~1_combout $end
$var wire 1 C led0|WideOr6~0_combout $end
$var wire 1 D led0|WideOr5~0_combout $end
$var wire 1 E led0|Decoder0~0_combout $end
$var wire 1 F led0|WideOr3~0_combout $end
$var wire 1 G led0|WideOr2~0_combout $end
$var wire 1 H led0|WideOr1~0_combout $end
$var wire 1 I led0|WideOr0~0_combout $end
$var wire 1 J next_state.s1~0_combout $end
$var wire 1 K state.s1~regout $end
$var wire 1 L Selector0~0_combout $end
$var wire 1 M state.s0~regout $end
$var wire 1 N redNS~0_combout $end
$var wire 1 O next_state.s4~0_combout $end
$var wire 1 P state.s4~regout $end
$var wire 1 Q redEW~0_combout $end
$var wire 1 R state.s2~regout $end
$var wire 1 S WideOr0~0_combout $end
$var wire 1 T out~2_combout $end
$var wire 1 U state.s5~regout $end
$var wire 1 V out~3_combout $end
$var wire 1 W count [2] $end
$var wire 1 X count [1] $end
$var wire 1 Y count [0] $end
$upscope $end
$upscope $end
$enddefinitions $end
#0
$dumpvars
0!
0"
1)
1(
1'
1&
1%
1$
0#
0*
1+
0.
0-
0,
1/
00
01
02
x3
04
15
x6
17
18
19
0:
0;
0<
0=
1>
0?
0@
1A
0B
1C
1D
0E
0F
0G
0H
0I
0J
0K
0L
0M
1N
0O
0P
0Q
0R
1S
0T
0U
0V
0Y
0X
0W
$end
#20000
1!
1:
03
#40000
0!
0:
13
#60000
1"
1!
1=
1:
03
1Y
1H
1G
1F
0C
1B
0A
0)
0$
0%
0&
#80000
0!
0:
13
#100000
1!
1:
03
1X
0Y
1I
0G
0F
1E
1C
1A
1#
1)
1%
1&
0'
#120000
0!
0:
13
#140000
1!
1:
03
1Y
1G
0E
0B
0A
1<
0%
1'
#160000
0!
0:
13
#180000
1!
1:
03
0X
0Y
1W
0H
1F
0C
1A
0)
1$
0&
#200000
0!
0:
13
#220000
1!
1:
03
1Y
1J
0F
0D
1C
1B
0A
0>
1L
0(
1)
1&
#240000
0!
0:
13
#260000
1!
1:
03
1M
1K
1X
0Y
0S
0J
1;
0G
12
0+
0B
0<
1.
1%
#280000
0!
0:
13
#300000
1!
1:
03
1R
0K
0X
0W
1T
1S
1?
0N
0I
1D
1>
02
1-
0#
1(
0.
10
#320000
0!
0:
13
#340000
1!
1:
03
0R
1@
0S
1Q
1A
0;
1*
1.
0/
#360000
0!
0:
13
#380000
1!
1:
03
1Y
1H
1G
1F
0C
1B
0A
0)
0$
0%
0&
#400000
0!
0:
13
#420000
1!
1:
03
1X
0Y
1I
0G
0F
1E
1C
1A
1#
1)
1%
1&
0'
#440000
0!
0:
13
#460000
1!
1:
03
1Y
1G
0E
0B
0A
1<
0%
1'
#480000
0!
0:
13
#500000
1!
1:
03
0X
0Y
1W
0H
1F
0C
1A
0)
1$
0&
#520000
0!
0:
13
#540000
1!
1:
03
1Y
1O
0F
0D
1C
1B
0A
0>
0?
0(
1)
1&
#560000
0!
0:
13
#580000
1!
1:
03
1P
1X
0Y
0@
1V
1S
0O
0G
0T
1;
11
0*
0B
0<
1,
0-
0.
1%
#600000
0!
0:
13
#620000
1!
1:
03
1U
0P
0X
0W
0L
0S
0Q
0I
1D
1>
01
0#
1(
1.
1/
#640000
0!
0:
13
#660000
1!
1:
03
0U
0M
0V
1S
1N
1A
0;
1+
0,
0.
00
#680000
0!
0:
13
#700000
1!
1:
03
1Y
1H
1G
1F
0C
1B
0A
0)
0$
0%
0&
#720000
0!
0:
13
#740000
1!
1:
03
1X
0Y
1I
0G
0F
1E
1C
1A
1#
1)
1%
1&
0'
#760000
0!
0:
13
#780000
1!
1:
03
1Y
1G
0E
0B
0A
1<
0%
1'
#800000
0!
0:
13
#820000
1!
1:
03
0X
0Y
1W
0H
1F
0C
1A
0)
1$
0&
#840000
0!
0:
13
#860000
1!
1:
03
1Y
1J
0F
0D
1C
1B
0A
0>
1L
0(
1)
1&
#880000
0!
0:
13
#900000
1!
1:
03
1M
1K
1X
0Y
0S
0J
1;
0G
12
0+
0B
0<
1.
1%
#920000
0!
0:
13
#940000
1!
1:
03
1R
0K
0X
0W
1T
1S
1?
0N
0I
1D
1>
02
1-
0#
1(
0.
10
#960000
0!
0:
13
#980000
1!
1:
03
0R
1@
0S
1Q
1A
0;
1*
1.
0/
